{
    "name": "bAware",
    "port": 3002,
    "mysql": {
        "host": "MYSQL_HOST",
        "port": "MYSQL_PORT",
        "database": "MYSQL_DATABASE",
        "user": "MYSQL_USER",
        "password": "MYSQL_PASSWORD",
        "rootUser": "MYSQL_ROOT_USER",
        "rootPassword": "MYSQL_ROOT_PASSWORD"
    },
    "firebase": {
        "keyPath": "../settings/firebaseKey.json",
        "databaseUrl": "FIREBASE_DATABASE_URL"
    },
    "security": {
        "salt": "SECURITY_RANDOM_SALT"
    }
}
